ca_supp_1
…
t_values[c(1:3), c(1380:1382)]

##      low_birth_weight_and_short_gestation_cat212_exposed_in_2024_among_1_to_4
## [1,]                                                                      NaN
## [2,]                                                                        2
## [3,]                                                                      NaN
##      simulation_run_time calcium_supplementation_intervention.proportion
## [1,]            9960.960                                               0
## [2,]            9948.302                                               1
## [3,]           10118.156                                               1

draft_1 <- as_tibble(t_values)
draft_1

## # A tibble: 3,998 x 1,382
##    total_populatio total_populatio total_population death_due_to_ne
##               <dbl>            <dbl>            <dbl>            <dbl>
##  1             9623            12221            21844              120
##  2             9561            12061            21622               95
##  3             9626            12081            21707               90
##  4             9599            11822            21421               94
##  5             9529            12333            21862              181
##  6             9608            12357            21965              187
##  7             9626            12096            21722              150
##  8             9639            12053            21692              126
##  9             9553            12225            21778              156
## 10             9618            12225            21843               97
## #  with 3,988 more rows, and 1,378 more variables:
## #   death_due_to_neonatal_preterm_birth_among_female_in_age_group_early_neonatal <dbl>,
## #   death_due_to_neonatal_preterm_birth_among_male_in_age_group_late_neonatal <dbl>,
## #   death_due_to_neonatal_preterm_birth_among_female_in_age_group_late_neonatal <dbl>,
## #   death_due_to_neonatal_preterm_birth_among_male_in_age_group_post_neonatal <dbl>,
## #   death_due_to_neonatal_preterm_birth_among_female_in_age_group_post_neonatal <dbl>,
## #   death_due_to_neonatal_preterm_birth_among_male_in_age_group_1_to_4 <dbl>,
## #   death_due_to_neonatal_preterm_birth_among_female_in_age_group_1_to_4 <dbl>,
## #   death_due_to_diarrheal_diseases_among_male_in_age_group_early_neonatal <dbl>,
…
value
1806953
0.67
541.62
5431.29
0
2
7
28
165541.1

output_1 %>% filter(is.na(value)) 

## # A tibble: 1,806,953 x 16
##    item  item_outcome gender lbw_sg_cat exposed_in item_age_group
##    <chr> <chr>        <chr>  <chr>      <chr>      <chr>         
##  1 low_ <NA>         <NA>   cat2       2020       early_neonatal
##  2 low_ <NA>         <NA>   cat2       2020       early_neonatal
##  3 low_ <NA>         <NA>   cat2       2020       early_neonatal
##  4 low_ <NA>         <NA>   cat2       2020       early_neonatal
##  5 low_ <NA>         <NA>   cat2       2020       early_neonatal
##  6 low_ <NA>         <NA>   cat2       2020       early_neonatal
##  7 low_ <NA>         <NA>   cat2       2020       early_neonatal
##  8 low_ <NA>         <NA>   cat2       2020       early_neonatal
##  9 low_ <NA>         <NA>   cat2       2020       early_neonatal
## 10 low_ <NA>         <NA>   cat2       2020       early_neonatal
## #  with 1,806,943 more rows, and 10 more variables:
## #   total_population_untracked <dbl>, total_population_tracked <dbl>,
## #   total_population <dbl>, total_population_living <dbl>,
## #   total_population_dead <dbl>, input_draw <dbl>, random_seed <dbl>,
## #   simulation_run_time <dbl>,
## #   calcium_supplementation_intervention.proportion <dbl>, value <dbl>

NAs: Almost half of low_birth_weight_and_short_gestation in item column have corresponding NAs in value column.

output_1%>% 
  group_by(item) %>% 
  summarise(pct = mean(is.na(value)) * 100) %>% 
  arrange(desc(pct)) 

## # A tibble: 26 x 2
##    item                                                                      pct
##    <chr>                                                                   <dbl>
##  1 low_birth_weight_and_short_gestation                                     39.0
##  2 death                                                                     0  
##  3 diarrheal_diseases_event_count                                            0  
##  4 diarrheal_diseases_prevalent_cases_at_sim_end                             0  
##  5 hemolytic_disease_and_other_neonatal_jaundice_event_count                 0  
##  6 hemolytic_disease_and_other_neonatal_jaundice_prevalent_cases_at_sim_e   0  
##  7 lower_respiratory_infections_event_count                                  0  
##  8 lower_respiratory_infections_prevalent_cases_at_sim_end                   0  
##  9 measles_event_count                                                       0  
## 10 measles_prevalent_cases_at_sim_end                                        0  
## #  with 16 more rows
…
final_dataset %>% count(item)

## # A tibble: 26 x 2
##    item                                                                        n
##    <chr>                                                                   <int>
##  1 death                                                                  2.56e5
##  2 diarrheal_diseases_event_count                                         4.00e3
##  3 diarrheal_diseases_prevalent_cases_at_sim_end                          4.00e3
##  4 hemolytic_disease_and_other_neonatal_jaundice_event_count              4.00e3
##  5 hemolytic_disease_and_other_neonatal_jaundice_prevalent_cases_at_sim_ 4.00e3
##  6 low_birth_weight_and_short_gestation                                   4.64e6
##  7 lower_respiratory_infections_event_count                               4.00e3
##  8 lower_respiratory_infections_prevalent_cases_at_sim_end                4.00e3
##  9 measles_event_count                                                    4.00e3
## 10 measles_prevalent_cases_at_sim_end                                     4.00e3
## #  with 16 more rows
…
